{
    "version": "6.49.2",
    "description": "A prompt theme engine for any shell",
    "homepage": "https://ohmyposh.dev",
    "license": "GPL-3.0-only",
    "notes": "Refer to 'https://ohmyposh.dev/docs/windows#replace-your-existing-prompt' for shell specific configurations.",
    "architecture": {
        "64bit": {
            "url": "https://github.com/JanDeDobbeleer/oh-my-posh3/releases/download/v6.49.2/posh-windows-amd64.7z",
            "hash": "f1a8d43622c9a581517c1719a46e6278ccaf4adc157b61b5d23745ae8ed8afe9"
        }
    },
    "bin": "bin\\oh-my-posh.exe",
    "persist": "themes",
    "checkver": {
        "github": "https://github.com/JanDeDobbeleer/oh-my-posh3"
    },
    "autoupdate": {
        "architecture": {
            "64bit": {
                "url": "https://github.com/JanDeDobbeleer/oh-my-posh3/releases/download/v$version/posh-windows-amd64.7z"
            }
        },
        "hash": {
            "url": "$url.sha256",
            "regex": "$sha256"
        }
    }
}
